{
  "extends": "../../tslint.json",
  "rules": {
    "directive-selector": [true, "attribute", "ipmsFsd", "camelCase"],
    "component-selector": [true, "element", "ipms-fsd", "kebab-case"]
  },
  "linterOptions": {
    "exclude": ["!**/*"]
  }
}
